{
  "project_info": {
    "project_number": "250651653410",
    "firebase_url": "https://pupingle.firebaseio.com",
    "project_id": "pupingle",
    "storage_bucket": "pupingle.appspot.com"
  },
  "client": [
    {
      "client_info": {
        "mobilesdk_app_id": "1:250651653410:android:e290b55cbe20471017a17b",
        "android_client_info": {
          "package_name": "com.bradham.pupingle"
        }
      },
      "oauth_client": [
        {
          "client_id": "250651653410-av8gvgvtda928kn6mu9mslv2f07n4s3i.apps.googleusercontent.com",
          "client_type": 3
        }
      ],
      "api_key": [
        {
          "current_key": "AIzaSyC6BU1CrIBNI_913MDxIgcOtiewZfI6rhg"
        }
      ],
      "services": {
        "appinvite_service": {
          "other_platform_oauth_client": [
            {
              "client_id": "250651653410-av8gvgvtda928kn6mu9mslv2f07n4s3i.apps.googleusercontent.com",
              "client_type": 3
            }
          ]
        }
      }
    }
  ],
  "configuration_version": "1"
}